{
  "default": {
    "id": "default",
    "label": "default",
    "default": true,
    "spaces": {
      "demo-release": {
        "label": "demo-release",
        "hasRangeHeader": true,
        "supportsReferencePartial": true,
        "hasLastNObservations": false,
        "url": "http://localhost:81/rest",
        "urlv3": "http://localhost:81/rest/v2",
        "headers": {
          "data": {
            "json": "application/vnd.sdmx.data+json;version=2.0"
          }
        }
      },
      "demo-design": {
        "label": "demo-design",
        "hasRangeHeader": true,
        "supportsReferencePartial": true,
        "hasLastNObservations": true,
        "url": "http://localhost:80/rest",
        "urlv3": "http://localhost:80/rest/v2",
        "headers": {
          "data": {
            "json": "application/vnd.sdmx.data+json;version=2.0"
          }
        }
      }
    },
    "datasources": {
      "ds-demo-release": {
        "dataSpaceId": "demo-release",
        "indexed": true,
        "dataqueries": [
          {
            "version": "1.0",
            "categorySchemeId": "TOPICS",
            "agencyId": "CH1"
          },
          {
            "version": "1.0",
            "categorySchemeId": "OECDCS1",
            "agencyId": "OECD"
          }
        ]
      },
      "ds-demo-design": {
        "dataSpaceId": "demo-design",
        "indexed": true,
        "dataqueries": [
          {
            "version": "1.0",
            "categorySchemeId": "TOPICS",
            "agencyId": "CH1"
          },
          {
            "version": "1.0",
            "categorySchemeId": "OECDCS1",
            "agencyId": "OECD"
          }
        ]
      }
    },
    "scopes": {
      "dlm": {
        "type": "dlm",
        "label": "dlm",
        "oidc": {
          "authority": "http://localhost:8080/auth/realms/demo",
          "client_id": "stat-suite"
        },
        "spaces": [
          {
            "id": "demo-release",
            "color": "white",
            "backgroundColor": "#606A80",
            "label": "demo-release",
            "transferUrl": "http://localhost:93/2",
            "dataExplorerUrl": "http://localhost:7001"
          },
          {
            "id": "demo-design",
            "color": "white",
            "backgroundColor": "#735667",
            "label": "demo-design",
            "transferUrl": "http://localhost:93/2",
            "dataExplorerUrl": "http://localhost:7001"
          }
        ]
      },
      "de": {
        "type": "de",
        "label": "de",
        "oidc": {
          "authority": "http://localhost:8080/auth/realms/demo",
          "client_id": "stat-suite",
          "required": false
        },
        "spaces": [
          "demo-design",
          "demo-release"
        ],
        "datasources": [
          "ds-demo-design",
          "ds-demo-release"
        ]
      }
    }
  }
}
